Linear Probability Models
…
where \(\hat{\pi}_i\) is the predicted proportion of students who graduate. Interpreting the coefficients,

On average, 0.22 of students having an ACT score of 0 are predicted to graduate. (Extrapolation)

Each one-point difference in ACT score is associated with an additional 0.02 predicted improvement in the proportion of students graduating, on average.

Lets examine the model assumptions.

# Augment the model
out = augment(lm.1)

# View augmented data
out

# A tibble: 2,344 x 8
   degree   act .fitted .resid     .hat .sigma   .cooksd .std.resid
    <dbl> <dbl>   <dbl>  <dbl>    <dbl>  <dbl>     <dbl>      <dbl>
 1      1    21   0.654  0.346 0.000777  0.434 0.000246       0.796
 2      1    19   0.613  0.387 0.00125   0.434 0.000498       0.893
 3      1    27   0.779  0.221 0.000552  0.434 0.0000713      0.508
 4      1    25   0.738  0.262 0.000428  0.434 0.0000782      0.604
 5      0    28   0.800 -0.800 0.000688  0.434 0.00117       -1.84 
 6      1    21   0.654  0.346 0.000777  0.434 0.000246       0.796
 7      1    27   0.779  0.221 0.000552  0.434 0.0000713      0.508
 8      0    20   0.633 -0.633 0.000988  0.434 0.00105       -1.46 
 9      1    26   0.758  0.242 0.000465  0.434 0.0000720      0.556
10      1    25   0.738  0.262 0.000428  0.434 0.0000782      0.604
#  with 2,334 more rows
…
