Introduction to Mixed-Effects Models
…
Mixed-effects regression actually fits a global model (like the one above) AND a school-specific model for each school. Conceptually, the school-specific model is akin to fitting a regression model for each school separately. Below I show the results (for five of the schools) of fitting a different regression model to each school, but keep in mind that this is not actually what happens; it is only to help you understand.

# Fit school models
school_models = joined_data %>%
  group_by(school_id) %>%
  summarize(
    tidy(lm(language_post  ~ 1 + verbal_iq))
    ) %>%
  ungroup()

# View coefficients from fitted models
school_models

# A tibble: 262 x 6
   school_id term        estimate std.error statistic  p.value
       <dbl> <chr>          <dbl>     <dbl>     <dbl>    <dbl>
 1         1 (Intercept)    39.8      1.58      25.1  3.16e-18
 2         1 verbal_iq       2.24     0.541      4.14 3.98e- 4
 3         2 (Intercept)    27.4      4.18       6.54 1.25e- 3
 4         2 verbal_iq       1.28     1.22       1.06 3.40e- 1
 5        10 (Intercept)    38.1      2.82      13.5  8.79e- 4
 6        10 verbal_iq       5.76     1.43       4.02 2.76e- 2
 7        12 (Intercept)    36.1      3.82       9.46 3.43e- 7
 8        12 verbal_iq       2.18     1.42       1.54 1.48e- 1
 9        15 (Intercept)    32.1      3.85       8.34 1.61e- 4
10        15 verbal_iq       3.71     1.71       2.16 7.36e- 2
#  with 252 more rows
…
