Logistic Regression
…
Below we show how to transform many such values using R.

# Create w values and transformed values
example = tibble(
  w = seq(from = -4, to = 4, by = 0.01)  # Set up values
  ) %>%
  mutate(
    Lambda = 1 / (1 + exp(-w))  # Transform using logistic function
  )

# View data
example

# A tibble: 801 x 2
       w Lambda
   <dbl>  <dbl>
 1 -4    0.0180
 2 -3.99 0.0182
 3 -3.98 0.0183
 4 -3.97 0.0185
 5 -3.96 0.0187
 6 -3.95 0.0189
 7 -3.94 0.0191
 8 -3.93 0.0193
 9 -3.92 0.0195
10 -3.91 0.0196
#  with 791 more rows
…
