Probability Distributions in Regression
…
Here is some R syntax that mimics this data generating process.

# Generate Y-values using the same X values that are in the data
new_city = city %>%
  select(education, seniority) %>%
  mutate(
    y_hat = 6.77 + 2.25*education + 0.739*seniority,
    e_i = rnorm(n = 32, mean = 0, sd = 7.65),
    income = y_hat + e_i
  )

# View generated data
new_city

# A tibble: 32 x 5
   education seniority y_hat     e_i income
       <dbl>     <dbl> <dbl>   <dbl>  <dbl>
 1         8         9  31.4 -4.40     27.0
 2         8         7  29.9  4.48     34.4
 3        10        16  41.1  6.89     48.0
 4        10         1  30.0 13.6      43.7
 5        10        14  39.6  4.51     44.1
 6        12        11  41.9 -1.48     40.4
 7        12        16  45.6  0.0386   45.6
 8        12        14  44.1  9.22     53.3
 9        12        24  51.5 -1.22     50.3
10        14         5  42.0 -3.30     38.7
#  with 22 more rows
…
